[api-updater (non-obsolete-error-filter)] 4/5/2021 11:08:31 AM : Starting C:/Program Files/Unity/Hub/Editor/2020.3.0f1/Editor/Data/Tools/ScriptUpdater/APIUpdater.NonObsoleteApiUpdaterDetector.exe
[api-updater (non-obsolete-error-filter)] 
----------------------------------
jit/startup time      : 1158.9007ms
moved types parse time: 107ms
candidates parse time : 2ms
C# parse time         : 466ms
candidates check time : 61ms
console write time    : 36ms

[api-updater (non-obsolete-error-filter)] 4/5/2021 11:13:02 AM : Starting C:/Program Files/Unity/Hub/Editor/2020.3.0f1/Editor/Data/Tools/ScriptUpdater/APIUpdater.NonObsoleteApiUpdaterDetector.exe
[api-updater (non-obsolete-error-filter)] 
----------------------------------
jit/startup time      : 88.4283ms
moved types parse time: 80ms
candidates parse time : 1ms
C# parse time         : 297ms
candidates check time : 47ms
console write time    : 0ms

[api-updater (non-obsolete-error-filter)] 4/5/2021 11:15:36 AM : Starting C:/Program Files/Unity/Hub/Editor/2020.3.0f1/Editor/Data/Tools/ScriptUpdater/APIUpdater.NonObsoleteApiUpdaterDetector.exe
[api-updater (non-obsolete-error-filter)] 
----------------------------------
jit/startup time      : 98.7062ms
moved types parse time: 79ms
candidates parse time : 1ms
C# parse time         : 263ms
candidates check time : 41ms
console write time    : 0ms

[api-updater (non-obsolete-error-filter)] 4/5/2021 11:18:33 AM : Starting C:/Program Files/Unity/Hub/Editor/2020.3.0f1/Editor/Data/Tools/ScriptUpdater/APIUpdater.NonObsoleteApiUpdaterDetector.exe
[api-updater (non-obsolete-error-filter)] 
----------------------------------
jit/startup time      : 82.7792ms
moved types parse time: 69ms
candidates parse time : 2ms
C# parse time         : 271ms
candidates check time : 60ms
console write time    : 0ms

[api-updater (non-obsolete-error-filter)] 4/5/2021 12:05:38 PM : Starting C:/Program Files/Unity/Hub/Editor/2020.3.0f1/Editor/Data/Tools/ScriptUpdater/APIUpdater.NonObsoleteApiUpdaterDetector.exe
[api-updater (non-obsolete-error-filter)] 
----------------------------------
jit/startup time      : 88.293ms
moved types parse time: 101ms
candidates parse time : 2ms
C# parse time         : 369ms
candidates check time : 77ms
console write time    : 0ms

[api-updater (non-obsolete-error-filter)] 4/5/2021 3:53:27 PM : Starting C:/Program Files/Unity/Hub/Editor/2020.3.0f1/Editor/Data/Tools/ScriptUpdater/APIUpdater.NonObsoleteApiUpdaterDetector.exe
[api-updater (non-obsolete-error-filter)] 
----------------------------------
jit/startup time      : 845.2546ms
moved types parse time: 191ms
candidates parse time : 2ms
C# parse time         : 1126ms
candidates check time : 73ms
console write time    : 14ms

[api-updater (non-obsolete-error-filter)] 4/6/2021 9:59:22 AM : Starting C:/Program Files/Unity/Hub/Editor/2020.3.0f1/Editor/Data/Tools/ScriptUpdater/APIUpdater.NonObsoleteApiUpdaterDetector.exe
[api-updater (non-obsolete-error-filter)] 
----------------------------------
jit/startup time      : 914.7184ms
moved types parse time: 72ms
candidates parse time : 1ms
C# parse time         : 274ms
candidates check time : 40ms
console write time    : 0ms

[api-updater (non-obsolete-error-filter)] 4/6/2021 12:01:59 PM : Starting C:/Program Files/Unity/Hub/Editor/2020.3.0f1/Editor/Data/Tools/ScriptUpdater/APIUpdater.NonObsoleteApiUpdaterDetector.exe
[api-updater (non-obsolete-error-filter)] 
----------------------------------
jit/startup time      : 384.4689ms
moved types parse time: 68ms
candidates parse time : 1ms
C# parse time         : 570ms
candidates check time : 65ms
console write time    : 0ms

